{
  "rules": {
    "align": [
      true,
      "parameters",
      "arguments",
      "statements"
    ],
    "class-name": true,
    "comment-format": [
      true,
      "check-space",
      "check-uppercase"
    ],
    "curly": true,
    "eofline": true,
    "indent": [
      true,
      "spaces"
    ],
    "jsdoc-format": true,
    "max-line-length": [
      true,
      100
    ],
    "new-parens": true,
    "no-angle-bracket-type-assertion": true,
    "no-construct": true,
    "no-duplicate-key": true,
    "no-duplicate-variable": true,
    "no-empty": true,
    "no-eval": true,
    "no-internal-module": true,
    "no-namespace": true,
    "no-reference": true,
    "no-shadowed-variable": true,
    "no-trailing-whitespace": true,
    "no-var-keyword": true,
    "no-var-requires": true,
    "one-line": [
      true,
      "check-catch",
      "check-else",
      "check-finally",
      "check-open-brace",
      "check-whitespace"
    ],
    "quotemark": [
      true,
      "single"
    ],
    "semicolon": [
      true,
      "never"
    ],
    "triple-equals": [
      true,
      "allow-null-check"
    ],
    "typedef": [
      true,
      "call-signature",
      "member-variable-declaration",
      "parameter",
      "property-declaration",
      "variable-declaration"
    ],
    "typedef-whitespace": [
      true,
      {
        "call-signature": "space",
        "index-signature": "nospace",
        "parameter": "nospace",
        "property-declaration": "nospace",
        "variable-declaration": "space"
      }
    ],
    "variable-name": [
      true,
      "ban-keywords",
      "check-format",
      "allow-pascal-case"
    ],
    "whitespace": [
      true,
      "check-branch",
      "check-decl",
      "check-operator",
      "check-separator",
      "check-type"
    ]
  }
}
